<?xml version="1.0" encoding="utf-8"?>
<!-- Generator: Adobe Illustrator 19.0.0, SVG Export Plug-In . SVG Version: 6.00 Build 0)  -->
<svg version="1.1" id="Layer_1" xmlns="http://www.w3.org/2000/svg" xmlns:xlink="http://www.w3.org/1999/xlink" x="0px" y="0px"
	 width="118px" height="118px" viewBox="0 0 118 118" style="enable-background:new 0 0 118 118;" xml:space="preserve">
<style type="text/css">
	.st0{opacity:0.5;fill:#FFFFFF;}
	.st1{fill:none;stroke:#FFFFFF;stroke-width:2;stroke-linecap:round;stroke-miterlimit:10;}
	.st2{fill:none;stroke:#FFFFFF;stroke-width:2;stroke-miterlimit:10;}
</style>
<g id="XMLID_2_">
	<circle id="XMLID_6_" class="st0" cx="59" cy="59" r="59"/>
	<g id="XMLID_3_">
		<polyline id="XMLID_5_" class="st1" points="69.8,36.9 47.2,59.5 69.9,82.2 		"/>
		<line id="XMLID_4_" class="st2" x1="48.2" y1="59.5" x2="118" y2="59.5"/>
	</g>
</g>
</svg>
